<?xml version="1.0" encoding="UTF-8"?>
<svg id="Ebene_2" data-name="Ebene 2" xmlns="http://www.w3.org/2000/svg" viewBox="0 0 296 296">
  <defs>
    <style>
      .cls-1 {
        fill: #fff;
      }

      .cls-2 {
        fill: #cd001f;
      }
    </style>
  </defs>
  <g id="Ebene_1-2" data-name="Ebene 1">
    <g>
      <circle class="cls-2" cx="148" cy="148" r="148"/>
      <path class="cls-1" d="m60.57,83.07h105.95v23.01h-37.64v106.85h-30.77v-106.85h-37.55v-23.01Z"/>
      <polygon class="cls-1" points="239.43 144.17 207.86 144.17 207.86 109.03 188.51 109.03 188.51 144.17 156.93 144.17 156.93 161.56 188.51 161.56 188.51 196.61 207.86 196.61 207.86 161.56 239.43 161.56 239.43 144.17"/>
    </g>
  </g>
</svg>