<?xml version="1.0" encoding="UTF-8"?>
<svg id="Ebene_1" data-name="Ebene 1" xmlns="http://www.w3.org/2000/svg" viewBox="0 0 64 64">
  <defs>
    <style>
      .cls-1 {
        fill: #cd1425;
      }
    </style>
  </defs>
  <polygon class="cls-1" points="64 20 60 20 60 4 28 4 28 0 64 0 64 20"/>
  <polygon class="cls-1" points="16 64 0 64 0 12 4 12 4 60 16 60 16 64"/>
  <polygon class="cls-1" points="0 0 24 0 24 8 16 8 16 24 8.06 24 8.06 8 0 8 0 0"/>
  <polygon class="cls-1" points="32 12 28 12 28 8 24 8 24 12 20 12 20 16 24 16 24 20 28 20 28 16 32 16 32 12"/>
  <path class="cls-1" d="M16,26.54v3.51c0,9.72,5.17,18.22,12.88,22.95v11h35.12v-4.68c0-6.23-12.48-9.36-18.73-9.36h-.59c-11.12,0-20.49-9.37-20.49-19.9v-3.51M45.27,26.54c-5.17,0-9.37,4.19-9.37,9.37s4.19,9.37,9.37,9.37,9.37-4.19,9.37-9.37-4.19-9.37-9.37-9.37"/>
</svg>