<?xml version="1.0" encoding="UTF-8"?>
<svg id="Ebene_1" data-name="Ebene 1" xmlns="http://www.w3.org/2000/svg" viewBox="0 0 64 64">
  <defs>
    <style>
      .cls-1 {
        fill: #cd1425;
      }
    </style>
  </defs>
  <path class="cls-1" d="M50.32,41.38c4.97,0,8.94,3.97,8.94,8.94,0,1.75-.5,3.4-1.37,4.77l6.12,6.16-2.76,2.76-6.2-6.1c-1.37.85-3,1.35-4.73,1.35-4.96,0-8.94-3.97-8.94-8.94s3.97-8.94,8.94-8.94M50.32,45.35c-2.74,0-4.96,2.22-4.96,4.96s2.22,4.96,4.96,4.96,4.97-2.22,4.97-4.96-2.22-4.96-4.97-4.96M35.42,25.49l3.97,3.97h15.89c2.19,0,3.97,1.78,3.97,3.97v7.57c-2.32-2.22-5.46-3.59-8.94-3.59-7.13,0-12.91,5.78-12.91,12.91,0,2.56.73,4.96,1.99,6.95h-15.89c-2.21,0-3.97-1.79-3.97-3.97v-23.83c0-2.2,1.77-3.97,3.97-3.97h11.92Z"/>
  <polygon class="cls-1" points="64 20 60 20 60 4 28 4 28 0 64 0 64 20"/>
  <polygon class="cls-1" points="16 64 0 64 0 12 4 12 4 60 16 60 16 64"/>
  <polygon class="cls-1" points="0 0 24 0 24 8 16 8 16 24 8.06 24 8.06 8 0 8 0 0"/>
  <polygon class="cls-1" points="32 12 28 12 28 8 24 8 24 12 20 12 20 16 24 16 24 20 28 20 28 16 32 16 32 12"/>
</svg>